…
    ## ── Conflicts ────────────────────────────────────────── tidyverse_conflicts() ──
    ## ✖ dplyr::filter() masks stats::filter()
    ## ✖ dplyr::lag()    masks stats::lag()

``` r
library(rcfss)

# load the data
data("gun_deaths")
gun_deaths
```

    ## # A tibble: 100,798 x 10
    ##       id  year month intent  police sex     age race      place  education
    ##    <int> <int> <dbl> <chr>    <int> <chr> <int> <chr>     <chr>  <fct>    
    ##  1     1  2012     1 Suicide      0 M        34 Asian/Pa… Home   BA+      
    ##  2     2  2012     1 Suicide      0 F        21 White     Street Some col…
    ##  3     3  2012     1 Suicide      0 M        60 White     Other… BA+      
    ##  4     4  2012     2 Suicide      0 M        64 White     Home   BA+      
    ##  5     5  2012     2 Suicide      0 M        31 White     Other… HS/GED   
    ##  6     6  2012     2 Suicide      0 M        17 Native A… Home   Less tha…
    ##  7     7  2012     2 Undete…      0 M        48 White     Home   HS/GED   
    ##  8     8  2012     3 Suicide      0 M        41 Native A… Home   HS/GED   
    ##  9     9  2012     2 Accide…      0 M        50 White     Other… Some col…
    ## 10    10  2012     2 Suicide      0 M        NA Black     Home   <NA>     
    ## # ... with 100,788 more rows
…
    ## [1] "Summer had the most gun deaths with 26280"

Are whites who are killed by guns more likely to die because of suicide or homicide? How does this compare to blacks and hispanics?
===================================================================================================================================

``` r
#Better graph
(likely_all <- gun_deaths %>%
  group_by(race, intent) %>%
  count())
```

    ## # A tibble: 21 x 3
    ## # Groups:   race, intent [21]
    ##    race                   intent           n
    ##    <chr>                  <chr>        <int>
    ##  1 Asian/Pacific Islander Accidental      12
    ##  2 Asian/Pacific Islander Homicide       559
    ##  3 Asian/Pacific Islander Suicide        745
    ##  4 Asian/Pacific Islander Undetermined    10
    ##  5 Black                  Accidental     328
    ##  6 Black                  Homicide     19510
    ##  7 Black                  Suicide       3332
    ##  8 Black                  Undetermined   126
    ##  9 Hispanic               Accidental     145
    ## 10 Hispanic               Homicide      5634
    ## # ... with 11 more rows
…
